…
Separate date

``` r
standard_and_poor$date = as.Date(standard_and_poor$date, "%m/%d/%Y")
```

``` r
standard_and_poor %>% 
  separate(date, into = c("year", "month", "day"), sep = "-")
```

    ## # A tibble: 787 x 4
    ##    year  month day   close
    ##    <chr> <chr> <chr> <dbl>
    ##  1 2015  07    01    2080.
    ##  2 2015  06    01    2063.
    ##  3 2015  05    01    2107.
    ##  4 2015  04    01    2086.
    ##  5 2015  03    02    2068.
    ##  6 2015  02    02    2104.
    ##  7 2015  01    02    1995.
    ##  8 2014  12    01    2059.
    ##  9 2014  11    03    2068.
    ## 10 2014  10    01    2018.
    ## # … with 777 more rows
